%YAML 1.1
%TAG !u! tag:unity3d.com,2011:
--- !u!1 &5501675271650975859
GameObject:
  m_ObjectHideFlags: 0
  m_CorrespondingSourceObject: {fileID: 0}
  m_PrefabInstance: {fileID: 0}
  m_PrefabAsset: {fileID: 0}
  serializedVersion: 6
  m_Component:
  - component: {fileID: 5501675271650975858}
  - component: {fileID: 5501675271650975857}
  m_Layer: 0
  m_Name: CursorManager
  m_TagString: Untagged
  m_Icon: {fileID: 0}
  m_NavMeshLayer: 0
  m_StaticEditorFlags: 0
  m_IsActive: 1
--- !u!4 &5501675271650975858
Transform:
  m_ObjectHideFlags: 0
  m_CorrespondingSourceObject: {fileID: 0}
  m_PrefabInstance: {fileID: 0}
  m_PrefabAsset: {fileID: 0}
  m_GameObject: {fileID: 5501675271650975859}
  m_LocalRotation: {x: 0, y: 0, z: 0, w: 1}
  m_LocalPosition: {x: 0, y: 0, z: 0}
  m_LocalScale: {x: 1, y: 1, z: 1}
  m_Children: []
  m_Father: {fileID: 0}
  m_RootOrder: 0
  m_LocalEulerAnglesHint: {x: 0, y: 0, z: 0}
--- !u!114 &5501675271650975857
MonoBehaviour:
  m_ObjectHideFlags: 0
  m_CorrespondingSourceObject: {fileID: 0}
  m_PrefabInstance: {fileID: 0}
  m_PrefabAsset: {fileID: 0}
  m_GameObject: {fileID: 5501675271650975859}
  m_Enabled: 1
  m_EditorHideFlags: 0
  m_Script: {fileID: 11500000, guid: b1d0e657ad6c44341b9ffe8592bc53b7, type: 3}
  m_Name: 
  m_EditorClassIdentifier: 
  DefaultCursor: {fileID: 2800000, guid: 2e71a8202d3b4a3448ec85ced5a40265, type: 3}
  SelectCursor: {fileID: 2800000, guid: 6fdfcd4167ed5e7488584241bb671bb2, type: 3}
  HealCursor: {fileID: 2800000, guid: 86d67df840a2fea4885e6d8c9b7b6e33, type: 3}
  AttackCursor: {fileID: 2800000, guid: 2a2b4775272c890448e1bd6239fdfc84, type: 3}
