%YAML 1.1
%TAG !u! tag:unity3d.com,2011:
--- !u!1 &5373564402774654582
GameObject:
  m_ObjectHideFlags: 0
  m_CorrespondingSourceObject: {fileID: 0}
  m_PrefabInstance: {fileID: 0}
  m_PrefabAsset: {fileID: 0}
  serializedVersion: 6
  m_Component:
  - component: {fileID: 5373564402774654583}
  - component: {fileID: 5373564402774654568}
  m_Layer: 0
  m_Name: EffectManager
  m_TagString: Untagged
  m_Icon: {fileID: 0}
  m_NavMeshLayer: 0
  m_StaticEditorFlags: 0
  m_IsActive: 1
--- !u!4 &5373564402774654583
Transform:
  m_ObjectHideFlags: 0
  m_CorrespondingSourceObject: {fileID: 0}
  m_PrefabInstance: {fileID: 0}
  m_PrefabAsset: {fileID: 0}
  m_GameObject: {fileID: 5373564402774654582}
  m_LocalRotation: {x: 0, y: 0, z: 0, w: 1}
  m_LocalPosition: {x: 0, y: 0, z: 0}
  m_LocalScale: {x: 1, y: 1, z: 1}
  m_Children: []
  m_Father: {fileID: 0}
  m_RootOrder: 0
  m_LocalEulerAnglesHint: {x: 0, y: 0, z: 0}
--- !u!114 &5373564402774654568
MonoBehaviour:
  m_ObjectHideFlags: 0
  m_CorrespondingSourceObject: {fileID: 0}
  m_PrefabInstance: {fileID: 0}
  m_PrefabAsset: {fileID: 0}
  m_GameObject: {fileID: 5373564402774654582}
  m_Enabled: 1
  m_EditorHideFlags: 0
  m_Script: {fileID: 11500000, guid: b4c6c94adffa20245b5a854a60da2d13, type: 3}
  m_Name: 
  m_EditorClassIdentifier: 
  Configuration: {fileID: 11400000, guid: 859f5cb84ce964c4a935800635e982c2, type: 2}
  m_aiBoard: {fileID: 0}
  m_playerBoard: {fileID: 0}
  m_currentlyActivatedCard: {fileID: 0}
  m_currentlyActivatedEffect: {fileID: 0}
