%YAML 1.1
%TAG !u! tag:unity3d.com,2011:
--- !u!114 &11400000
MonoBehaviour:
  m_ObjectHideFlags: 0
  m_CorrespondingSourceObject: {fileID: 0}
  m_PrefabInstance: {fileID: 0}
  m_PrefabAsset: {fileID: 0}
  m_GameObject: {fileID: 0}
  m_Enabled: 1
  m_EditorHideFlags: 0
  m_Script: {fileID: 11500000, guid: 61773dbfb821c6940ac58a6be79de8c8, type: 3}
  m_Name: Damage3
  m_EditorClassIdentifier: 
  Target: 0
  ChangeHealth: 1
  HealthChange: -3
  ChangeHealthWhenEnemyKilled: 0
  HealthChangeWhenEnemyKilled: 1
